…
get_result <- function(x){
  x %>% content() %>% getElement("result") %>% 
  map_dfr(row_to_tibble)
}
```

``` r
all_species <- all_results  %>% map_dfr(get_result) %>% filter(category=="EX"| category=="EW")
all_species
```

    # A tibble: 989 x 4
       scientific_name            category phylum     class         
       <chr>                      <chr>    <chr>      <chr>         
     1 Mirogrex hulensis          EX       CHORDATA   ACTINOPTERYGII
     2 Acanthametropus pecatonica EX       ARTHROPODA INSECTA       
     3 Achatinella abbreviata     EX       MOLLUSCA   GASTROPODA    
     4 Achatinella buddii         EX       MOLLUSCA   GASTROPODA    
     5 Achatinella caesia         EX       MOLLUSCA   GASTROPODA    
     6 Achatinella casta          EX       MOLLUSCA   GASTROPODA    
     7 Achatinella decora         EX       MOLLUSCA   GASTROPODA    
     8 Achatinella dimorpha       EX       MOLLUSCA   GASTROPODA    
     9 Achatinella elegans        EX       MOLLUSCA   GASTROPODA    
    10 Achatinella juddii         EX       MOLLUSCA   GASTROPODA    
    # ... with 979 more rows
…
Here we are adding the extinction dates (including dates of NA values
that are binned into 1600) for 989 species calculated above to our table
of 989 species consists of EX - Extinct and EW - Extinct in the Wild
species.

``` r
all_species_with_year <- all_species %>%
  mutate(extinct_year = all_year)
all_species_with_year
```

    # A tibble: 989 x 5
       scientific_name            category phylum     class          extinct_year
       <chr>                      <chr>    <chr>      <chr>                 <dbl>
     1 Mirogrex hulensis          EX       CHORDATA   ACTINOPTERYGII         2000
     2 Acanthametropus pecatonica EX       ARTHROPODA INSECTA                1600
     3 Achatinella abbreviata     EX       MOLLUSCA   GASTROPODA             1600
     4 Achatinella buddii         EX       MOLLUSCA   GASTROPODA             1600
     5 Achatinella caesia         EX       MOLLUSCA   GASTROPODA             1600
     6 Achatinella casta          EX       MOLLUSCA   GASTROPODA             1600
     7 Achatinella decora         EX       MOLLUSCA   GASTROPODA             1600
     8 Achatinella dimorpha       EX       MOLLUSCA   GASTROPODA             1600
     9 Achatinella elegans        EX       MOLLUSCA   GASTROPODA             1600
    10 Achatinella juddii         EX       MOLLUSCA   GASTROPODA             1600
    # … with 979 more rows
…
``` r
all_year_noNA <- 
  extinc_year %>% 
  map(possibly(bin_year, NA_real_)) %>%
  as.integer()

all_species_noNA <- all_species %>%
  mutate(extinct_year = all_year_noNA) %>%
  drop_na()
all_species_noNA
```

    # A tibble: 548 x 5
       scientific_name                  category phylum     class       extinct_year
       <chr>                            <chr>    <chr>      <chr>              <int>
     1 Mirogrex hulensis                EX       CHORDATA   ACTINOPTER…         2000
     2 Acipenser nudiventris            EX       CHORDATA   ACTINOPTER…         2000
     3 Afrocyclops pauliani             EX       ARTHROPODA MAXILLOPODA         2000
     4 Alasmidonta robusta              EX       MOLLUSCA   BIVALVIA            2000
     5 Alasmidonta wrightiana           EX       MOLLUSCA   BIVALVIA            2000
     6 Alasmidonta mccordi              EX       MOLLUSCA   BIVALVIA            2000
     7 Alburnus akili                   EX       CHORDATA   ACTINOPTER…         2000
     8 Alcelaphus buselaphus ssp. buse… EX       CHORDATA   MAMMALIA            2000
     9 Pholidoscelis cineraceus         EX       CHORDATA   REPTILIA            2000
    10 Aphanius splendens               EX       CHORDATA   ACTINOPTER…         2000
    # … with 538 more rows
…
